<?xml version="1.0" encoding="UTF-8" standalone="no"?>
<!-- Created with Inkscape (http://www.inkscape.org/) -->

<svg
   width="512"
   height="512"
   viewBox="0 0 135.46666 135.46667"
   version="1.1"
   id="svg5"
   inkscape:version="1.2.2 (b0a8486541, 2022-12-01)"
   sodipodi:docname="next_icon.svg"
   xml:space="preserve"
   xmlns:inkscape="http://www.inkscape.org/namespaces/inkscape"
   xmlns:sodipodi="http://sodipodi.sourceforge.net/DTD/sodipodi-0.dtd"
   xmlns="http://www.w3.org/2000/svg"
   xmlns:svg="http://www.w3.org/2000/svg"><sodipodi:namedview
     id="namedview7"
     pagecolor="#505050"
     bordercolor="#ffffff"
     borderopacity="1"
     inkscape:showpageshadow="0"
     inkscape:pageopacity="0"
     inkscape:pagecheckerboard="1"
     inkscape:deskcolor="#505050"
     inkscape:document-units="mm"
     showgrid="false"
     showguides="true"
     inkscape:zoom="1.6035354"
     inkscape:cx="163.70079"
     inkscape:cy="326.77795"
     inkscape:window-width="1892"
     inkscape:window-height="1052"
     inkscape:window-x="780"
     inkscape:window-y="12"
     inkscape:window-maximized="1"
     inkscape:current-layer="layer1" /><defs
     id="defs2"><rect
       x="179.93247"
       y="172.36755"
       width="162.44745"
       height="252.18112"
       id="rect2401" /><rect
       x="79.536584"
       y="313.43853"
       width="223.56917"
       height="65.692324"
       id="rect2211" /></defs><g
     inkscape:label="Layer 1"
     inkscape:groupmode="layer"
     id="layer1"><path
       style="fill:none;stroke:#3c404e;stroke-width:5.62756;stroke-dasharray:none;paint-order:markers stroke fill"
       d="M 107.15927,67.733333 H -1.1110964"
       id="path898"
       inkscape:label="Arrow tail" /><path
       style="fill:none;fill-opacity:1;stroke:#3c404e;stroke-width:6;stroke-dasharray:none;stroke-opacity:1;paint-order:markers stroke fill"
       d="M 84.278159,52.503227 110.6349,67.7203 84.233009,82.963439"
       id="path7222"
       inkscape:label="Arrow head" /></g></svg>
